// Jest Snapshot v1, https://goo.gl/fbAQLP

exports[`Favorites Page snapshot renders with empty favorites 1`] = `
<DocumentFragment>
  <div
    class="container cart-list"
  >
    <h2
      class="cart-list-title"
    >
      Favorites is empty
    </h2>
  </div>
</DocumentFragment>
`;

exports[`Favorites Page snapshot renders with favorites 1`] = `
<DocumentFragment>
  <div
    class="container cart-list"
  >
    <h2
      class="cart-list-title"
    >
      Favorites:
    </h2>
    <ul
      class="cart-list-items"
    >
      <li
        class="cart-card"
      >
        <img
          alt="Product 1"
          class="cart-card-image"
          src="image.jpg"
        />
        <div
          class="cart-card-info"
        >
          <h2
            class="cart-card-name"
          >
            Product 1
          </h2>
          <p
            class="cart-card-price"
          >
            Price: 100 ₴
          </p>
          <p
            class="cart-card-article"
          >
            Article: Article 1
          </p>
          <p
            class="cart-card-color"
          >
            Color: 
            <span
              style="background-color: red; display: inline-block; width: 20px; height: 20px;"
            />
          </p>
          <button
            class="add-to-favorites-star active"
          >
            <img
              alt="Add to favorites"
              src="icon-star-active.png"
            />
          </button>
        </div>
      </li>
    </ul>
  </div>
</DocumentFragment>
`;
