// Jest Snapshot v1, https://goo.gl/fbAQLP

exports[`FormField snapshot renders with error 1`] = `
<DocumentFragment>
  <div
    class="form-control"
  >
    <label
      for="testId"
    >
      Test Label
    </label>
    <input
      class="error-input"
      id="testId"
      name="testName"
      type="text"
      value="testValue"
    />
    <p
      class="error-message"
    >
      Test error message
    </p>
  </div>
</DocumentFragment>
`;

exports[`FormField snapshot renders without error 1`] = `
<DocumentFragment>
  <div
    class="form-control"
  >
    <label
      for="testId"
    >
      Test Label
    </label>
    <input
      class=""
      id="testId"
      name="testName"
      type="text"
      value="testValue"
    />
  </div>
</DocumentFragment>
`;
